Заказ клиента No 1131 от 27 мая 2021 г.
Исполнитель:ИП Колотилин С. Е., ИНН 263006406084, 357201, Ставропольский край, Минераловодский р-н, Минеральные Воды г, Дачная ул, дом No 5, квартира 5, тел.: 88001004433
Заказчик:Розничный покупатель
Адрес доставки:Сочи Металлобаза (ПЕРЕМЕЩЕНИЕ)
NoАртикулТовары (работы, услуги)КоличествоЦенаСуммабез скидкиСкидкаСумма
1109738МД Муфта переходная 35 x 22 (5240R)13шт.484,006 292,00314,605 977,402100476МД Тройник 22 (5130)95шт.128,0012 160,00608,0011 552,00
3108236МД Тройник 42 (5130)4шт.1 160,004 640,00232,004 408,004110819МД Тройник 544шт.2 048,008 192,00409,607 782,40
5131722МД Тройник 643шт.8 461,0025 383,001 269,1524 113,856105204МД Тройник переходной 22 x 28 x 22 (5130R)2шт (1 шт.)245,00490,0024,50465,50
7101282МД Тройник переходной 28 x 22 x 28 (5130R)2шт.246,00492,0024,60467,408111 595МД Тройник переходной 42 х 22 х 42 (5130R)15шт.1 600,0024 000,001 200,0022 800,00
9118792МД Тройник переходной 54 х 22 х 545шт.3 466,0017 330,00866,5016 463,50
10L1581120   433 422 100МД Труба мед.неотож. (22-1) SANCO (5м) Цена за 1 метр.715м1 011,00722 865,0036 143,25686 721,75
117011315 / 433 428 100МД Труба мед.неотож. (28-1) SANCO (5м) Цена за 1 метр.22,5м1 310,0029 475,001 473,7528 001,25
12L1581126 (431801500)МД Труба мед.неотож. (35-1,5) SANCO (5м) Цена за 1 метр.17,5м1 642,0028 735,001 436,7527 298,25
13L1581129 (431801700)   433 442 100МД Труба мед.неотож. (42-1,0) SANCO (5м) Цена за 1 метр.105м2 010,00211 050,0010 552,50200 497,50
14D19412     МД Труба мед.неотож. (54-1,5) SANCO (5м) Цена за 1 метр.120м.3 921,00470 520,0023 526,00446 994,00
157011437МД Труба мед.неотож. (64-2,0) SANCO (5м) Цена за 1 метр.105м.6 371,00668 955,0033 447,75635 507,2516100278МД Угольник двухраст. 22 х 90 (5090)346шт.57,0019 722,00986,1018 735,90
17100 711МД Угольник двухраст. 28 х 90 (5090)11шт.104,001 144,0057,201 086,8018103088МД Угольник двухраст. 35 (5090)8шт.374,002 992,00149,602 842,40
Итого:2 254 437,00112 721,852 141 715,15
Без налога (НДС)-
Всего наименований 18, на сумму 2 141 715,15 руб.
Два миллиона сто сорок одна тысяча семьсот пятнадцать рублей 15 копеек
МенеджерКочаров А. А.
----------------Page (0) Break----------------
